[
    {
        "id": 1,
        "title": "Alice in Wonderland",
        "authors": [
            "Lewis Carroll"
        ],
        "genre": "Fantasy",
        "purchase_date": "2013-10-11",
        "language": "English",
        "description": "When Alice follows a white rabbit in a waistcoat down a hole, she finds herself in a mixed-up world where nothing is as she expects it to be and anything can happen.<br><br>Alice meets a pipe-smoking caterpillar, a grinning cat, a Mad Hatter and the formidable Queen of Hearts.",
        "cover": "alice_in_wonderland.png"
    },
    {
        "id": 2,
        "title": "Second Variety",
        "authors": [
            "Philip K. Dick"
        ],
        "genre": "Science Fiction",
        "purchase_date": "1999-03-18",
        "language": "English",
        "description": "In the aftermath of a devastating nuclear war between the United Nations and the Soviet Union, sophisticated robots nicknamed &quot;claws&quot; are created to destroy what remains of human life.<br><br>Left to their own devices, however, the claws develop robots of their own. II-V, the second variety, remains unknown to the few humans left on Earth. Or does it?",
        "cover": "second_variety.png"
    },
    {
        "id": 3,
        "title": "Gulliver's Travels",
        "authors": [
            "Jonathan Swift"
        ],
        "genre": "Fantasy",
        "purchase_date": "2005-12-01",
        "language": "English",
        "description": "&quot;Soon I felt something alive moving along my leg and up my body to my face, and when I looked down, I saw a very small human being, only fifteen centimetres tall... I was so surprised that I gave a great shout.&quot;<br><br>But that is only the first of many surprises which Gulliver has on his travels. He visits a land of giants and a flying island, meets ghosts from the past and horses which talk...",
        "cover": "gullivers_travels.png"
    },
    {
        "id": 4,
        "title": "Pan Tadeusz",
        "authors": [
            "Adam Mickiewicz"
        ],
        "genre": "Poetry",
        "purchase_date": "1995-02-18",
        "language": "Polish",
        "description": "Pan Tadeusz is an epic tale of country life among the Polish and Lithuanian gentry in the years 1811 and 1812.<br><br>It is a poem of the love of country, to which all people belong.",
        "cover": "pan_tadeusz.png"
    },
    {
        "id": 5,
        "title": "Le Morte Darthur",
        "authors": [
            "Thomas Malory"
        ],
        "genre": "Classics",
        "purchase_date": "1998-06-07",
        "language": "English",
        "description": "In a time when there were damsels in distress to save, and mythical dragons to slay, King Arthur and his knights of the Round Table were there to render justice in the face of any danger.<br><br>From the incredible wizardry of Merlin to the undeniable passion of Sir Launcelot, these tales of Arthur and his knights offer epic adventures with the supernatural, as well as timeless battles with our humanity.",
        "cover": "le_morte_darthur.png"
    },
    {
        "id": 6,
        "title": "Through a Microscope",
        "authors": [
            "Frederick Leroy Sargent",
            "Mary Treat",
            "Samuel R. Wells"
        ],
        "genre": "Science",
        "purchase_date": "2011-08-27",
        "language": "English",
        "description": "This collection of literature attempts to compile many of the classic, timeless works that have stood the test of time and offer them at a reduced, affordable price, in an attractive volume so that everyone can enjoy them.",
        "cover": "through_a_microscope.png"
    },
    {
        "id": 7,
        "title": "The Cosmic Computer",
        "authors": [
            "H. Beam Piper"
        ],
        "genre": "Science Fiction",
        "purchase_date": "2001-10-17",
        "language": "English",
        "description": "Persisting over the decades is the legend of MERLIN, the super-computer said to have planned the grand strategy which successfully concluded the war. &quot;If we could only find Merlin,&quot; the inhabitants said to each other, &quot;all our problems would be solved.&quot;<br><br>Then young Conn Maxwell returned from Earth, with a university degree, and a few clues about the location and the true nature of Merlin. And the sure knowledge that finding the Cosmic Computer would be the worst thing that could possibly happen to his home world.",
        "cover": "cosmic_computer.png"
    },
    {
        "id": 8,
        "title": "Meteorology",
        "authors": [
            "Charles Fitzhugh Talman"
        ],
        "genre": "Science",
        "purchase_date": "1996-11-30",
        "language": "English",
        "description": "Meteorology is the science of the atmosphere and its phenomena, including weather. Nowadays, when we speak of a &quot;meteor&quot;, we generally mean a shooting star; but formerly this term was applied (and it still often is in technical literature) to a great variety of phenomena and appearances in the atmosphere, including clouds, rain, snow, rainbows, and so forth.<br><br>That is how the science of the atmosphere came to have its present name.",
        "cover": "meteorology.png"
    },
    {
        "id": 9,
        "title": "The Jungle Book",
        "authors": [
            "Rudyard Kipling"
        ],
        "genre": "Adventure",
        "purchase_date": "2005-01-31",
        "language": "English",
        "description": "First published over a century ago, these three unabridged stories from &quot;The Jungle Book&quot; about the man-cub, Mowgli, have delighted adults and children ever since.<br><br>The stories tell of Mowgli's upbringing among the wolves; his lessons in the Law of the Jungle from Baloo the bear, Bagheera the black panther, and Kaa the python; his kidnapping by the Monkey People; and his clash with the evil tiger, Shere Khan.",
        "cover": "jungle_book.png"
    },
    {
        "id": 10,
        "title": "The Variable Man",
        "authors": [
            "Philip K. Dick"
        ],
        "genre": "Science Fiction",
        "purchase_date": "2009-03-13",
        "language": "English",
        "description": "Predictability has come a long way. The computers of the future can tell you if you're going to win a war before you fire a shot.<br><br>Unfortunately they're predicting perpetual standoff between the Terran and Centaurian Empires. What they need is something unpredictable, what they get is Thomas Cole, a man from the past accidently dragged forward in time. Will he fit their calculations, or is he the random variable that can break the stalemate?",
        "cover": "variable_man.png"
    }
]
